{
    "search": {
        "keywords": "teacher",
        "location": null,
        "onlineApps": "0",
        "days": "0",
        "states": null,
        "regions": "0",
        "jobTypes": "0",
        "empType": "0",
        "recruitmentCenterID": "0",
        "searchType": "all",
        "q": null,
        "catID": "0",
        "regionID": "0",
        "districtID": "0",
        "searchID": "0",
        "rows": 10,
        "page": 1,
        "sort": "postingDate",
        "order": "desc",
        "ApplicantID": 0
    },
    "totalPages": 1019,
    "totalRecords": 10181,
    "totalOpenings": 0,
    "displayRecords": 10,
    "data": [
        {
            "postingID": 2231608,
            "positionTitle": "TEACHER - WORLD LANGUAGE - FRENCH - 0.4 FTE, HOMESTEAD High School - 2026-2027 School Year",
            "salaryInfo": "Per Teacher's Salary Schedule (+MA/MS $2,352, +Doctorate $3,342, + up $10,117 longevity. Comprehensive benefits package)",
            "beginningSalary": null,
            "endingSalary": null,
            "displayFlag": "By Date",
            "postingDate": "/Date(1780444800000)/",
            "displayUntil": "/Date(1781305200000)/",
            "countyName": "Santa Clara",
            "districtName": "Fremont Union High School District",
            "city": "Sunnyvale",
            "isRecruitmentCenter": false,
            "zip": null,
            "jobClassification": null,
            "numberOpenings": 0,
            "recruitmentCenterID": 0,
            "isAdminJob": false,
            "categoryName": null,
            "categoryID": 1,
            "jobTypeID": 5,
            "countyID": 43,
            "accountID": 0,
            "postingInformation": null,
            "onlineApp": true,
            "State": 24,
            "stateName": "California",
            "fullCountyName": "Santa Clara County, CA   ",
            "jobType": "Teacher - High School",
            "isSummerSchool": false,
            "limitPosting": false,
            "accountType": 0,
            "JobSummary": null,
            "portalURL": null,
            "districtLogo": null,
            "bookmark": 0,
            "applied": 0,
            "date_startApplication": "/Date(-62135568000000)/",
            "app_status": null,
            "FullTimePartTime": "Part Time",
            "SalaryInfoSelect": "Dependent",
            "PayRangeFrom": "",
            "PayRangeTo": "",
            "PayRangeDropdown": "",
            "SingleRate": "",
            "SingleRateDropdown": "",
            "CreationDate": "/Date(1780397350730)/"
        },
        {
            "postingID": 2232207,
            "positionTitle": "BEVERLY HILLS HIGH SCHOOL MATHEMATICS TEACHER",
            "salaryInfo": "Appropriate Placement on Teacher Salary Schedule",
            "beginningSalary": null,
            "endingSalary": null,
            "displayFlag": "Until Filled",
            "postingDate": "/Date(1780444800000)/",
            "displayUntil": "/Date(1796284800000)/",
            "countyName": "Los Angeles",
            "districtName": "Beverly Hills Unified",
            "city": "Beverly Hills",
            "isRecruitmentCenter": false,
            "zip": null,
            "jobClassification": null,
            "numberOpenings": 0,
            "recruitmentCenterID": 0,
            "isAdminJob": false,
            "categoryName": null,
            "categoryID": 1,
            "jobTypeID": 5,
            "countyID": 19,
            "accountID": 0,
            "postingInformation": null,
            "onlineApp": true,
            "State": 24,
            "stateName": "California",
            "fullCountyName": "Los Angeles County, CA   ",
            "jobType": "Teacher - High School",
            "isSummerSchool": false,
            "limitPosting": false,
            "accountType": 0,
            "JobSummary": null,
            "portalURL": null,
            "districtLogo": null,
            "bookmark": 0,
            "applied": 0,
            "date_startApplication": "/Date(-62135568000000)/",
            "app_status": null,
            "FullTimePartTime": "Full Time",
            "SalaryInfoSelect": "Dependent",
            "PayRangeFrom": "",
            "PayRangeTo": "",
            "PayRangeDropdown": "",
            "SingleRate": "",
            "SingleRateDropdown": "",
            "CreationDate": "/Date(1780474874677)/"
        },
        {
            "postingID": 2232159,
            "positionTitle": "Elementary Teacher - 2nd Grade",
            "salaryInfo": "Placement on Teachers Salary",
            "beginningSalary": null,
            "endingSalary": null,
            "displayFlag": "Until Filled",
            "postingDate": "/Date(1780444800000)/",
            "displayUntil": "/Date(1796284800000)/",
            "countyName": "Santa Clara",
            "districtName": "Palo Alto Unified School District",
            "city": "Palo Alto",
            "isRecruitmentCenter": false,
            "zip": null,
            "jobClassification": null,
            "numberOpenings": 0,
            "recruitmentCenterID": 0,
            "isAdminJob": false,
            "categoryName": null,
            "categoryID": 1,
            "jobTypeID": 48,
            "countyID": 43,
            "accountID": 0,
            "postingInformation": null,
            "onlineApp": false,
            "State": 24,
            "stateName": "California",
            "fullCountyName": "Santa Clara County, CA   ",
            "jobType": "Teacher - K-6",
            "isSummerSchool": false,
            "limitPosting": false,
            "accountType": 0,
            "JobSummary": null,
            "portalURL": null,
            "districtLogo": null,
            "bookmark": 0,
            "applied": 0,
            "date_startApplication": "/Date(-62135568000000)/",
            "app_status": null,
            "FullTimePartTime": "Full Time",
            "SalaryInfoSelect": "Dependent",
            "PayRangeFrom": "",
            "PayRangeTo": "",
            "PayRangeDropdown": "",
            "SingleRate": "",
            "SingleRateDropdown": "",
            "CreationDate": "/Date(1780470426660)/"
        },
        {
            "postingID": 2232157,
            "positionTitle": "Elementary Teacher- Barron Park Elementary",
            "salaryInfo": "Placement on Teachers Salary",
            "beginningSalary": null,
            "endingSalary": null,
            "displayFlag": "Until Filled",
            "postingDate": "/Date(1780444800000)/",
            "displayUntil": "/Date(1796284800000)/",
            "countyName": "Santa Clara",
            "districtName": "Palo Alto Unified School District",
            "city": "Palo Alto",
            "isRecruitmentCenter": false,
            "zip": null,
            "jobClassification": null,
            "numberOpenings": 0,
            "recruitmentCenterID": 0,
            "isAdminJob": false,
            "categoryName": null,
            "categoryID": 1,
            "jobTypeID": 48,
            "countyID": 43,
            "accountID": 0,
            "postingInformation": null,
            "onlineApp": false,
            "State": 24,
            "stateName": "California",
            "fullCountyName": "Santa Clara County, CA   ",
            "jobType": "Teacher - K-6",
            "isSummerSchool": false,
            "limitPosting": false,
            "accountType": 0,
            "JobSummary": null,
            "portalURL": null,
            "districtLogo": null,
            "bookmark": 0,
            "applied": 0,
            "date_startApplication": "/Date(-62135568000000)/",
            "app_status": null,
            "FullTimePartTime": "Full Time",
            "SalaryInfoSelect": "Dependent",
            "PayRangeFrom": "",
            "PayRangeTo": "",
            "PayRangeDropdown": "",
            "SingleRate": "",
            "SingleRateDropdown": "",
            "CreationDate": "/Date(1780470215627)/"
        },
        {
            "postingID": 2232199,
            "positionTitle": "Special Education Teacher - Extensive Support Needs - 2026-2027 School Year",
            "salaryInfo": "Special Education Stipend (3.6% of Step 1, Column 2 of Teacher's Salary Schedule)",
            "beginningSalary": null,
            "endingSalary": null,
            "displayFlag": "By Date",
            "postingDate": "/Date(1780444800000)/",
            "displayUntil": "/Date(1781049600000)/",
            "countyName": "Los Angeles",
            "districtName": "Rowland Unified",
            "city": "Rowland Heights",
            "isRecruitmentCenter": false,
            "zip": null,
            "jobClassification": null,
            "numberOpenings": 0,
            "recruitmentCenterID": 0,
            "isAdminJob": false,
            "categoryName": null,
            "categoryID": 1,
            "jobTypeID": 9,
            "countyID": 19,
            "accountID": 0,
            "postingInformation": null,
            "onlineApp": true,
            "State": 24,
            "stateName": "California",
            "fullCountyName": "Los Angeles County, CA   ",
            "jobType": "Teacher - Special Education",
            "isSummerSchool": false,
            "limitPosting": false,
            "accountType": 0,
            "JobSummary": null,
            "portalURL": null,
            "districtLogo": null,
            "bookmark": 0,
            "applied": 0,
            "date_startApplication": "/Date(-62135568000000)/",
            "app_status": null,
            "FullTimePartTime": "Full Time",
            "SalaryInfoSelect": "Pay Range",
            "PayRangeFrom": "$63,536",
            "PayRangeTo": "$125,003",
            "PayRangeDropdown": "Annually",
            "SingleRate": "",
            "SingleRateDropdown": "",
            "CreationDate": "/Date(1780474290903)/"
        },
        {
            "postingID": 2232208,
            "positionTitle": "Elementary Teacher (Grades 1, 2, 3) 2026-2027 SY - Carmichael",
            "salaryInfo": "plus possible stipends ($58,933 for intern teachers)",
            "beginningSalary": null,
            "endingSalary": null,
            "displayFlag": "Until Filled",
            "postingDate": "/Date(1780444800000)/",
            "displayUntil": "/Date(1796284800000)/",
            "countyName": "Sacramento",
            "districtName": "California Montessori Project",
            "city": "",
            "isRecruitmentCenter": false,
            "zip": null,
            "jobClassification": null,
            "numberOpenings": 0,
            "recruitmentCenterID": 0,
            "isAdminJob": false,
            "categoryName": null,
            "categoryID": 1,
            "jobTypeID": 64,
            "countyID": 34,
            "accountID": 0,
            "postingInformation": null,
            "onlineApp": true,
            "State": 24,
            "stateName": "California",
            "fullCountyName": "Sacramento County, CA   ",
            "jobType": "Teacher - K-8",
            "isSummerSchool": false,
            "limitPosting": false,
            "accountType": 0,
            "JobSummary": null,
            "portalURL": null,
            "districtLogo": null,
            "bookmark": 0,
            "applied": 0,
            "date_startApplication": "/Date(-62135568000000)/",
            "app_status": null,
            "FullTimePartTime": "Full Time",
            "SalaryInfoSelect": "Pay Range",
            "PayRangeFrom": "$58,933",
            "PayRangeTo": "$103,517",
            "PayRangeDropdown": "Annually",
            "SingleRate": "",
            "SingleRateDropdown": "",
            "CreationDate": "/Date(1780474921080)/"
        },
        {
            "postingID": 2232165,
            "positionTitle": "2nd/3rd Grade Combo Teacher, (2026/2027 school year), 1.0 FTE, Kitayama Elementary ",
            "salaryInfo": "",
            "beginningSalary": null,
            "endingSalary": null,
            "displayFlag": "By Date",
            "postingDate": "/Date(1780444800000)/",
            "displayUntil": "/Date(1796370900000)/",
            "countyName": "Alameda",
            "districtName": "New Haven Unified School District",
            "city": "Union City",
            "isRecruitmentCenter": false,
            "zip": null,
            "jobClassification": null,
            "numberOpenings": 0,
            "recruitmentCenterID": 0,
            "isAdminJob": false,
            "categoryName": null,
            "categoryID": 1,
            "jobTypeID": 48,
            "countyID": 1,
            "accountID": 0,
            "postingInformation": null,
            "onlineApp": true,
            "State": 24,
            "stateName": "California",
            "fullCountyName": "Alameda County, CA   ",
            "jobType": "Teacher - K-6",
            "isSummerSchool": false,
            "limitPosting": false,
            "accountType": 0,
            "JobSummary": null,
            "portalURL": null,
            "districtLogo": null,
            "bookmark": 0,
            "applied": 0,
            "date_startApplication": "/Date(-62135568000000)/",
            "app_status": null,
            "FullTimePartTime": "Full Time",
            "SalaryInfoSelect": "Pay Range",
            "PayRangeFrom": "$93,982.42",
            "PayRangeTo": " $129,501.64",
            "PayRangeDropdown": "Annually",
            "SingleRate": "",
            "SingleRateDropdown": "",
            "CreationDate": "/Date(1780471412920)/"
        },
        {
            "postingID": 2232155,
            "positionTitle": "K-12 Physical Education/Health Teacher",
            "salaryInfo": "",
            "beginningSalary": null,
            "endingSalary": null,
            "displayFlag": "By Date",
            "postingDate": "/Date(1780444800000)/",
            "displayUntil": "/Date(1783752900000)/",
            "countyName": "Nobles",
            "districtName": "Ellsworth Public School",
            "city": "Ellsworth",
            "isRecruitmentCenter": false,
            "zip": null,
            "jobClassification": null,
            "numberOpenings": 0,
            "recruitmentCenterID": 0,
            "isAdminJob": false,
            "categoryName": null,
            "categoryID": 1,
            "jobTypeID": 64,
            "countyID": 1370,
            "accountID": 0,
            "postingInformation": null,
            "onlineApp": false,
            "State": 47,
            "stateName": "Minnesota",
            "fullCountyName": "Nobles County, MN   ",
            "jobType": "Teacher - K-8",
            "isSummerSchool": false,
            "limitPosting": false,
            "accountType": 0,
            "JobSummary": null,
            "portalURL": null,
            "districtLogo": null,
            "bookmark": 0,
            "applied": 0,
            "date_startApplication": "/Date(-62135568000000)/",
            "app_status": null,
            "FullTimePartTime": "Full Time",
            "SalaryInfoSelect": "Dependent",
            "PayRangeFrom": "",
            "PayRangeTo": "",
            "PayRangeDropdown": "",
            "SingleRate": "",
            "SingleRateDropdown": "",
            "CreationDate": "/Date(1780469733553)/"
        },
        {
            "postingID": 2232156,
            "positionTitle": "Teacher Kindergarten SPED SH/SDC #196 YR. 26/27 Vac. #16-1395 Open Until Filled",
            "salaryInfo": "Starting Salary $58,097- $90,734 DOE Pro-rated Annually",
            "beginningSalary": null,
            "endingSalary": null,
            "displayFlag": "By Date",
            "postingDate": "/Date(1780444800000)/",
            "displayUntil": "/Date(1781739000000)/",
            "countyName": "Mendocino",
            "districtName": "Fort Bragg Unified School District",
            "city": "Fort Bragg",
            "isRecruitmentCenter": false,
            "zip": null,
            "jobClassification": null,
            "numberOpenings": 0,
            "recruitmentCenterID": 0,
            "isAdminJob": false,
            "categoryName": null,
            "categoryID": 1,
            "jobTypeID": 9,
            "countyID": 23,
            "accountID": 0,
            "postingInformation": null,
            "onlineApp": true,
            "State": 24,
            "stateName": "California",
            "fullCountyName": "Mendocino County, CA   ",
            "jobType": "Teacher - Special Education",
            "isSummerSchool": false,
            "limitPosting": false,
            "accountType": 0,
            "JobSummary": null,
            "portalURL": null,
            "districtLogo": null,
            "bookmark": 0,
            "applied": 0,
            "date_startApplication": "/Date(-62135568000000)/",
            "app_status": null,
            "FullTimePartTime": "Full Time",
            "SalaryInfoSelect": "Dependent",
            "PayRangeFrom": "",
            "PayRangeTo": "",
            "PayRangeDropdown": "",
            "SingleRate": "",
            "SingleRateDropdown": "",
            "CreationDate": "/Date(1780470101127)/"
        },
        {
            "postingID": 2232163,
            "positionTitle": "RW Teacher Transitional Kindergarten YR. 26/27 1.0 FTE Pos. #406 Vac.#16-400 Open Until Filled",
            "salaryInfo": "$58,097 - $90,734  Salary is based on years of experience (Up to 10 + Current) and original transcript credits.",
            "beginningSalary": null,
            "endingSalary": null,
            "displayFlag": "By Date",
            "postingDate": "/Date(1780444800000)/",
            "displayUntil": "/Date(1781739720000)/",
            "countyName": "Mendocino",
            "districtName": "Fort Bragg Unified School District",
            "city": "Fort Bragg",
            "isRecruitmentCenter": false,
            "zip": null,
            "jobClassification": null,
            "numberOpenings": 0,
            "recruitmentCenterID": 0,
            "isAdminJob": false,
            "categoryName": null,
            "categoryID": 1,
            "jobTypeID": 63,
            "countyID": 23,
            "accountID": 0,
            "postingInformation": null,
            "onlineApp": true,
            "State": 24,
            "stateName": "California",
            "fullCountyName": "Mendocino County, CA   ",
            "jobType": "Teacher - Pre K",
            "isSummerSchool": false,
            "limitPosting": false,
            "accountType": 0,
            "JobSummary": null,
            "portalURL": null,
            "districtLogo": null,
            "bookmark": 0,
            "applied": 0,
            "date_startApplication": "/Date(-62135568000000)/",
            "app_status": null,
            "FullTimePartTime": "Full and Part Time",
            "SalaryInfoSelect": "Dependent",
            "PayRangeFrom": "",
            "PayRangeTo": "",
            "PayRangeDropdown": "",
            "SingleRate": "",
            "SingleRateDropdown": "",
            "CreationDate": "/Date(1780470954700)/"
        }
    ]
}
